prelab/simulation/qsim/prelab5.msim.vcd
$comment
	File created using the following command:
		vcd file prelab5.msim.vcd -direction
$end
$date
	Tue Oct 17 18:22:50 2017
$end
$version
	ModelSim Version 10.5b
$end
$timescale
	1ps
$end

$scope module dac_vlg_vec_tst $end
$var reg 8 ! d [7:0] $end
$var wire 1 " ones_digit [7] $end
$var wire 1 # ones_digit [6] $end
$var wire 1 $ ones_digit [5] $end
$var wire 1 % ones_digit [4] $end
$var wire 1 & ones_digit [3] $end
$var wire 1 ' ones_digit [2] $end
$var wire 1 ( ones_digit [1] $end
$var wire 1 ) ones_digit [0] $end
$var wire 1 * tenths_digit [7] $end
$var wire 1 + tenths_digit [6] $end
$var wire 1 , tenths_digit [5] $end
$var wire 1 - tenths_digit [4] $end
$var wire 1 . tenths_digit [3] $end
$var wire 1 / tenths_digit [2] $end
$var wire 1 0 tenths_digit [1] $end
$var wire 1 1 tenths_digit [0] $end

$scope module i1 $end
$var wire 1 2 gnd $end
$var wire 1 3 vcc $end
$var wire 1 4 unknown $end
$var tri1 1 5 devclrn $end
$var tri1 1 6 devpor $end
$var tri1 1 7 devoe $end
$var wire 1 8 ones_digit[0]~output_o $end
$var wire 1 9 ones_digit[1]~output_o $end
$var wire 1 : ones_digit[2]~output_o $end
$var wire 1 ; ones_digit[3]~output_o $end
$var wire 1 < ones_digit[4]~output_o $end
$var wire 1 = ones_digit[5]~output_o $end
$var wire 1 > ones_digit[6]~output_o $end
$var wire 1 ? ones_digit[7]~output_o $end
$var wire 1 @ tenths_digit[0]~output_o $end
$var wire 1 A tenths_digit[1]~output_o $end
$var wire 1 B tenths_digit[2]~output_o $end
$var wire 1 C tenths_digit[3]~output_o $end
$var wire 1 D tenths_digit[4]~output_o $end
$var wire 1 E tenths_digit[5]~output_o $end
$var wire 1 F tenths_digit[6]~output_o $end
$var wire 1 G tenths_digit[7]~output_o $end
$var wire 1 H d[7]~input_o $end
$var wire 1 I d[6]~input_o $end
$var wire 1 J d[5]~input_o $end
$var wire 1 K d[4]~input_o $end
$var wire 1 L d[2]~input_o $end
$var wire 1 M d[3]~input_o $end
$var wire 1 N dividerOnes|LPM_DIVIDE_component|auto_generated|divider|divider|op_4~1 $end
$var wire 1 O dividerOnes|LPM_DIVIDE_component|auto_generated|divider|divider|op_4~3 $end
$var wire 1 P dividerOnes|LPM_DIVIDE_component|auto_generated|divider|divider|op_4~5 $end
$var wire 1 Q dividerOnes|LPM_DIVIDE_component|auto_generated|divider|divider|op_4~7 $end
$var wire 1 R dividerOnes|LPM_DIVIDE_component|auto_generated|divider|divider|op_4~8_combout $end
$var wire 1 S dividerOnes|LPM_DIVIDE_component|auto_generated|divider|divider|op_4~9 $end
$var wire 1 T dividerOnes|LPM_DIVIDE_component|auto_generated|divider|divider|op_4~10_combout $end
$var wire 1 U dividerOnes|LPM_DIVIDE_component|auto_generated|divider|divider|StageOut[45]~4_combout $end
$var wire 1 V dividerOnes|LPM_DIVIDE_component|auto_generated|divider|divider|op_4~6_combout $end
$var wire 1 W dividerOnes|LPM_DIVIDE_component|auto_generated|divider|divider|StageOut[44]~5_combout $end
$var wire 1 X dividerOnes|LPM_DIVIDE_component|auto_generated|divider|divider|op_4~4_combout $end
$var wire 1 Y dividerOnes|LPM_DIVIDE_component|auto_generated|divider|divider|StageOut[43]~6_combout $end
$var wire 1 Z dividerOnes|LPM_DIVIDE_component|auto_generated|divider|divider|op_4~2_combout $end
$var wire 1 [ dividerOnes|LPM_DIVIDE_component|auto_generated|divider|divider|StageOut[42]~7_combout $end
$var wire 1 \ dividerOnes|LPM_DIVIDE_component|auto_generated|divider|divider|op_4~0_combout $end
$var wire 1 ] dividerOnes|LPM_DIVIDE_component|auto_generated|divider|divider|StageOut[41]~8_combout $end
$var wire 1 ^ d[1]~input_o $end
$var wire 1 _ dividerOnes|LPM_DIVIDE_component|auto_generated|divider|divider|StageOut[40]~9_combout $end
$var wire 1 ` dividerOnes|LPM_DIVIDE_component|auto_generated|divider|divider|op_5~1 $end
$var wire 1 a dividerOnes|LPM_DIVIDE_component|auto_generated|divider|divider|op_5~3 $end
$var wire 1 b dividerOnes|LPM_DIVIDE_component|auto_generated|divider|divider|op_5~5 $end
$var wire 1 c dividerOnes|LPM_DIVIDE_component|auto_generated|divider|divider|op_5~7 $end
$var wire 1 d dividerOnes|LPM_DIVIDE_component|auto_generated|divider|divider|op_5~9 $end
$var wire 1 e dividerOnes|LPM_DIVIDE_component|auto_generated|divider|divider|op_5~10_combout $end
$var wire 1 f dividerOnes|LPM_DIVIDE_component|auto_generated|divider|divider|op_5~11 $end
$var wire 1 g dividerOnes|LPM_DIVIDE_component|auto_generated|divider|divider|op_5~12_combout $end
$var wire 1 h dividerOnes|LPM_DIVIDE_component|auto_generated|divider|divider|StageOut[54]~10_combout $end
$var wire 1 i dividerOnes|LPM_DIVIDE_component|auto_generated|divider|divider|op_5~8_combout $end
$var wire 1 j dividerOnes|LPM_DIVIDE_component|auto_generated|divider|divider|StageOut[53]~11_combout $end
$var wire 1 k dividerOnes|LPM_DIVIDE_component|auto_generated|divider|divider|op_5~6_combout $end
$var wire 1 l dividerOnes|LPM_DIVIDE_component|auto_generated|divider|divider|StageOut[52]~12_combout $end
$var wire 1 m dividerOnes|LPM_DIVIDE_component|auto_generated|divider|divider|op_5~4_combout $end
$var wire 1 n dividerOnes|LPM_DIVIDE_component|auto_generated|divider|divider|StageOut[51]~13_combout $end
$var wire 1 o dividerOnes|LPM_DIVIDE_component|auto_generated|divider|divider|op_5~2_combout $end
$var wire 1 p dividerOnes|LPM_DIVIDE_component|auto_generated|divider|divider|StageOut[50]~14_combout $end
$var wire 1 q dividerOnes|LPM_DIVIDE_component|auto_generated|divider|divider|op_5~0_combout $end
$var wire 1 r dividerOnes|LPM_DIVIDE_component|auto_generated|divider|divider|StageOut[49]~22_combout $end
$var wire 1 s dividerOnes|LPM_DIVIDE_component|auto_generated|divider|divider|StageOut[48]~15_combout $end
$var wire 1 t d[0]~input_o $end
$var wire 1 u dividerOnes|LPM_DIVIDE_component|auto_generated|divider|divider|op_6~1 $end
$var wire 1 v dividerOnes|LPM_DIVIDE_component|auto_generated|divider|divider|op_6~3 $end
$var wire 1 w dividerOnes|LPM_DIVIDE_component|auto_generated|divider|divider|op_6~5 $end
$var wire 1 x dividerOnes|LPM_DIVIDE_component|auto_generated|divider|divider|op_6~7 $end
$var wire 1 y dividerOnes|LPM_DIVIDE_component|auto_generated|divider|divider|op_6~9 $end
$var wire 1 z dividerOnes|LPM_DIVIDE_component|auto_generated|divider|divider|op_6~11 $end
$var wire 1 { dividerOnes|LPM_DIVIDE_component|auto_generated|divider|divider|op_6~13_cout $end
$var wire 1 | dividerOnes|LPM_DIVIDE_component|auto_generated|divider|divider|op_6~14_combout $end
$var wire 1 } dividerOnes|LPM_DIVIDE_component|auto_generated|divider|divider|op_6~6_combout $end
$var wire 1 ~ dividerOnes|LPM_DIVIDE_component|auto_generated|divider|divider|StageOut[60]~17_combout $end
$var wire 1 !! dividerOnes|LPM_DIVIDE_component|auto_generated|divider|divider|op_6~10_combout $end
$var wire 1 "! dividerOnes|LPM_DIVIDE_component|auto_generated|divider|divider|StageOut[62]~16_combout $end
$var wire 1 #! dividerOnes|LPM_DIVIDE_component|auto_generated|divider|divider|op_6~8_combout $end
$var wire 1 $! dividerOnes|LPM_DIVIDE_component|auto_generated|divider|divider|StageOut[61]~18_combout $end
$var wire 1 %! dividerOnes|LPM_DIVIDE_component|auto_generated|divider|divider|op_6~4_combout $end
$var wire 1 &! dividerOnes|LPM_DIVIDE_component|auto_generated|divider|divider|StageOut[59]~19_combout $end
$var wire 1 '! dividerOnes|LPM_DIVIDE_component|auto_generated|divider|divider|op_6~2_combout $end
$var wire 1 (! dividerOnes|LPM_DIVIDE_component|auto_generated|divider|divider|StageOut[58]~20_combout $end
$var wire 1 )! dividerOnes|LPM_DIVIDE_component|auto_generated|divider|divider|op_6~0_combout $end
$var wire 1 *! dividerOnes|LPM_DIVIDE_component|auto_generated|divider|divider|StageOut[57]~23_combout $end
$var wire 1 +! dividerOnes|LPM_DIVIDE_component|auto_generated|divider|divider|StageOut[56]~21_combout $end
$var wire 1 ,! Add0~1 $end
$var wire 1 -! Add0~3 $end
$var wire 1 .! Add0~5 $end
$var wire 1 /! Add0~7 $end
$var wire 1 0! Add0~8_combout $end
$var wire 1 1! Add0~6_combout $end
$var wire 1 2! Add0~4_combout $end
$var wire 1 3! Add0~2_combout $end
$var wire 1 4! Add0~0_combout $end
$var wire 1 5! dividerTenths|LPM_DIVIDE_component|auto_generated|divider|divider|op_4~1 $end
$var wire 1 6! dividerTenths|LPM_DIVIDE_component|auto_generated|divider|divider|op_4~3 $end
$var wire 1 7! dividerTenths|LPM_DIVIDE_component|auto_generated|divider|divider|op_4~5 $end
$var wire 1 8! dividerTenths|LPM_DIVIDE_component|auto_generated|divider|divider|op_4~7 $end
$var wire 1 9! dividerTenths|LPM_DIVIDE_component|auto_generated|divider|divider|op_4~8_combout $end
$var wire 1 :! dividerTenths|LPM_DIVIDE_component|auto_generated|divider|divider|op_4~9 $end
$var wire 1 ;! dividerTenths|LPM_DIVIDE_component|auto_generated|divider|divider|op_4~10_combout $end
$var wire 1 <! dividerTenths|LPM_DIVIDE_component|auto_generated|divider|divider|StageOut[45]~2_combout $end
$var wire 1 =! dividerTenths|LPM_DIVIDE_component|auto_generated|divider|divider|op_4~6_combout $end
$var wire 1 >! dividerTenths|LPM_DIVIDE_component|auto_generated|divider|divider|StageOut[44]~3_combout $end
$var wire 1 ?! dividerTenths|LPM_DIVIDE_component|auto_generated|divider|divider|op_4~4_combout $end
$var wire 1 @! dividerTenths|LPM_DIVIDE_component|auto_generated|divider|divider|StageOut[43]~4_combout $end
$var wire 1 A! dividerTenths|LPM_DIVIDE_component|auto_generated|divider|divider|op_4~2_combout $end
$var wire 1 B! dividerTenths|LPM_DIVIDE_component|auto_generated|divider|divider|StageOut[42]~5_combout $end
$var wire 1 C! dividerTenths|LPM_DIVIDE_component|auto_generated|divider|divider|op_4~0_combout $end
$var wire 1 D! dividerTenths|LPM_DIVIDE_component|auto_generated|divider|divider|StageOut[41]~6_combout $end
$var wire 1 E! dividerTenths|LPM_DIVIDE_component|auto_generated|divider|divider|StageOut[40]~7_combout $end
$var wire 1 F! dividerTenths|LPM_DIVIDE_component|auto_generated|divider|divider|op_5~1 $end
$var wire 1 G! dividerTenths|LPM_DIVIDE_component|auto_generated|divider|divider|op_5~3 $end
$var wire 1 H! dividerTenths|LPM_DIVIDE_component|auto_generated|divider|divider|op_5~5 $end
$var wire 1 I! dividerTenths|LPM_DIVIDE_component|auto_generated|divider|divider|op_5~7 $end
$var wire 1 J! dividerTenths|LPM_DIVIDE_component|auto_generated|divider|divider|op_5~9 $end
$var wire 1 K! dividerTenths|LPM_DIVIDE_component|auto_generated|divider|divider|op_5~10_combout $end
$var wire 1 L! dividerTenths|LPM_DIVIDE_component|auto_generated|divider|divider|op_5~11 $end
$var wire 1 M! dividerTenths|LPM_DIVIDE_component|auto_generated|divider|divider|op_5~12_combout $end
$var wire 1 N! dividerTenths|LPM_DIVIDE_component|auto_generated|divider|divider|StageOut[54]~8_combout $end
$var wire 1 O! dividerTenths|LPM_DIVIDE_component|auto_generated|divider|divider|op_5~8_combout $end
$var wire 1 P! dividerTenths|LPM_DIVIDE_component|auto_generated|divider|divider|StageOut[53]~9_combout $end
$var wire 1 Q! dividerTenths|LPM_DIVIDE_component|auto_generated|divider|divider|op_5~6_combout $end
$var wire 1 R! dividerTenths|LPM_DIVIDE_component|auto_generated|divider|divider|StageOut[52]~10_combout $end
$var wire 1 S! dividerTenths|LPM_DIVIDE_component|auto_generated|divider|divider|op_5~4_combout $end
$var wire 1 T! dividerTenths|LPM_DIVIDE_component|auto_generated|divider|divider|StageOut[51]~11_combout $end
$var wire 1 U! dividerTenths|LPM_DIVIDE_component|auto_generated|divider|divider|op_5~2_combout $end
$var wire 1 V! dividerTenths|LPM_DIVIDE_component|auto_generated|divider|divider|StageOut[50]~12_combout $end
$var wire 1 W! dividerTenths|LPM_DIVIDE_component|auto_generated|divider|divider|op_5~0_combout $end
$var wire 1 X! dividerTenths|LPM_DIVIDE_component|auto_generated|divider|divider|StageOut[49]~13_combout $end
$var wire 1 Y! dividerTenths|LPM_DIVIDE_component|auto_generated|divider|divider|op_6~1_cout $end
$var wire 1 Z! dividerTenths|LPM_DIVIDE_component|auto_generated|divider|divider|op_6~3_cout $end
$var wire 1 [! dividerTenths|LPM_DIVIDE_component|auto_generated|divider|divider|op_6~5_cout $end
$var wire 1 \! dividerTenths|LPM_DIVIDE_component|auto_generated|divider|divider|op_6~7_cout $end
$var wire 1 ]! dividerTenths|LPM_DIVIDE_component|auto_generated|divider|divider|op_6~9_cout $end
$var wire 1 ^! dividerTenths|LPM_DIVIDE_component|auto_generated|divider|divider|op_6~11_cout $end
$var wire 1 _! dividerTenths|LPM_DIVIDE_component|auto_generated|divider|divider|op_6~12_combout $end
$upscope $end
$upscope $end
$enddefinitions $end
#0
$dumpvars
b0 !
0)
0(
0'
0&
0%
0$
0#
0"
01
00
0/
0.
0-
0,
0+
0*
02
13
x4
15
16
17
08
09
0:
0;
0<
0=
0>
0?
0@
0A
0B
0C
0D
0E
0F
0G
0H
0I
0J
0K
0L
0M
0N
1O
0P
1Q
0R
0S
1T
0U
0V
0W
1X
0Y
1Z
0[
0\
0]
0^
1_
0`
1a
0b
1c
0d
1e
1f
1g
0h
0i
0j
0k
0l
1m
0n
1o
0p
0q
0r
1s
0t
0u
1v
0w
1x
0y
1z
0{
1|
0}
0~
1!!
0"!
0#!
0$!
1%!
0&!
1'!
0(!
0)!
0*!
1+!
0,!
1-!
0.!
1/!
00!
01!
02!
03!
04!
05!
16!
07!
18!
09!
0:!
1;!
0<!
0=!
0>!
1?!
0@!
1A!
0B!
0C!
0D!
1E!
0F!
1G!
0H!
1I!
0J!
1K!
1L!
1M!
0N!
0O!
0P!
0Q!
0R!
1S!
0T!
1U!
0V!
0W!
0X!
0Y!
1Z!
0[!
1\!
0]!
1^!
1_!
$end
#10000
b1 !
1t
0+!
1)!
1W!
14!
1D!
1C!
1V!
0G!
0U!
0Z!
1H!
0S!
1Q!
#20000
b11 !
b10 !
0t
1^
1+!
0)!
1*!
0s
1q
0W!
04!
1X!
0E!
15!
0C!
13!
1)!
0D!
05!
1C!
1Y!
1W!
06!
1B!
0V!
1G!
1U!
0A!
17!
0?!
1T!
1S!
0S!
1=!
1[!
#30000
b11 !
1t
0+!
1u
0)!
1F!
0W!
14!
0v
0'!
0G!
0U!
1D!
15!
0C!
1w
0%!
1S!
1V!
1U!
1A!
1}
#40000
b111 !
b101 !
b100 !
0t
0^
1L
1+!
0u
1)!
0*!
1s
0q
1r
0_
1\
0F!
1W!
04!
0X!
1E!
05!
1C!
03!
0)!
1(!
1q
0U!
0D!
0C!
0Y!
0W!
16!
0B!
12!
14!
0V!
1G!
1U!
1D!
0T!
0S!
1@!
1C!
1Z!
0H!
1S!
1V!
0G!
0U!
0[!
1R!
0I!
0Q!
1I!
1Q!
0Z!
1H!
0S!
1O!
0O!
0I!
0Q!
1O!
#50000
b101 !
1t
0+!
1)!
1W!
1,!
04!
13!
0D!
0C!
1B!
06!
0A!
0V!
1G!
1U!
1T!
1?!
1Z!
#60000
b111 !
b110 !
0t
1^
1+!
0)!
1*!
0s
1`
0q
0W!
0,!
14!
1X!
0E!
1C!
0-!
03!
1)!
0a
0o
1-!
13!
1D!
15!
0C!
1Y!
1W!
1.!
02!
0B!
16!
1A!
1b
0m
0.!
12!
1B!
06!
1V!
0G!
0U!
0Z!
11!
0@!
07!
0T!
0H!
1S!
1k
01!
1@!
17!
1T!
1H!
1>!
0R!
1I!
0>!
1R!
0I!
1[!
1P!
0P!
0\!
1]!
0^!
0_!
1@
11
#70000
b111 !
1t
0+!
1u
0)!
1F!
0W!
1,!
04!
1'!
1U!
0-!
03!
0D!
05!
1C!
0V!
1.!
02!
0B!
16!
0U!
11!
0@!
07!
0T!
0S!
1>!
0R!
1I!
1Q!
0[!
1P!
1\!
#80000
b1111 !
b1011 !
b1001 !
b1000 !
0t
0^
0L
1M
1+!
0u
1)!
0*!
1s
0`
1q
0r
1_
1]
0F!
1W!
0,!
14!
1v
0X!
1E!
0C!
1-!
13!
0)!
0(!
0q
1p
1G!
1U!
03!
1D!
1C!
0Y!
0W!
0.!
1B!
06!
0A!
04!
1&!
1V!
0B!
16!
1A!
0G!
0U!
0D!
1Z!
1T!
17!
0?!
0C!
13!
0Z!
0T!
07!
1?!
1B!
0V!
1G!
1U!
08!
0=!
06!
0A!
18!
1=!
1T!
1Z!
19!
17!
0?!
09!
08!
0=!
19!
#90000
b1001 !
1t
0+!
1)!
1W!
14!
1D!
1C!
1V!
0G!
0U!
0Z!
1S!
1[!
#100000
b1011 !
b1010 !
0t
1^
1+!
0)!
1*!
0s
1q
0W!
04!
1X!
0E!
15!
0C!
0-!
03!
1)!
0D!
05!
1C!
1Y!
1W!
12!
0B!
0V!
1G!
1U!
16!
1A!
1@!
1?!
0T!
0S!
0H!
1S!
0?!
1R!
0I!
0Q!
0[!
1I!
1Q!
1J!
0O!
0J!
1O!
0L!
0K!
1L!
1K!
0M!
1A
1M!
1N!
1V!
1T!
10
0A
0V!
0T!
0N!
1[!
00
0[!
0\!
1\!
#110000
b1011 !
1t
0+!
1u
0)!
1F!
0W!
14!
0v
0'!
0G!
0U!
1D!
15!
0C!
1%!
1H!
0S!
1V!
1U!
06!
0A!
0I!
0Q!
1?!
1J!
0O!
0L!
0K!
0M!
1A
0X!
0R!
0P!
10
0Y!
0]!
1^!
1_!
0@
01
#120000
b1111 !
b1101 !
b1100 !
0t
0^
1L
1+!
0u
1)!
0*!
1s
0q
1r
0_
1N
0\
0F!
1W!
04!
1E!
05!
1C!
1-!
13!
0)!
1(!
1q
0O
0Z
0U!
1X!
0D!
0C!
0W!
1B!
14!
1P
0X
0V!
1Y!
1G!
1U!
1D!
0X!
1S!
1C!
1V
0S!
1V!
0G!
0U!
0Y!
1T!
0T!
1S!
0V!
1[!
0[!
1T!
1Z!
#130000
b1101 !
1t
0+!
1)!
1W!
1,!
04!
1X!
0-!
03!
0D!
0C!
1Y!
1.!
02!
0B!
16!
1A!
1G!
1U!
0Z!
0/!
01!
0@!
07!
0H!
1V!
1[!
10!
0>!
18!
1I!
1<!
0J!
#140000
b1111 !
b1110 !
0t
1^
1+!
0)!
1*!
0s
1`
0q
0W!
0,!
14!
0E!
1C!
13!
1)!
1o
0X!
03!
1D!
15!
0C!
1W!
1B!
06!
0A!
0Y!
0B!
0G!
0U!
1X!
1H!
0S!
17!
0?!
0T!
0V!
1Y!
1Q!
1=!
0[!
1R!
#150000
b1111 !
1t
0+!
1u
0)!
1F!
0W!
1,!
04!
1'!
1U!
0X!
13!
0D!
05!
1C!
1V!
0Y!
1B!
0U!
1S!
0V!
1T!
1Z!
#160000
b11111 !
b10111 !
b10011 !
b10001 !
b10000 !
0t
0^
0L
0M
1K
1+!
0u
1)!
0*!
1s
0`
1q
0r
1_
0N
0]
1[
1Z
0F!
1W!
0,!
14!
1v
1E!
0C!
03!
0)!
1a
0(!
0q
0Z
0p
1n
1m
1G!
1U!
1X!
1-!
13!
1D!
1C!
0w
0W!
0B!
16!
1A!
0m
0.!
12!
04!
0&!
1~
0x
0}
0H!
1V!
1Y!
1B!
06!
0A!
0G!
0U!
0D!
1x
1}
0X!
1/!
1@!
0C!
03!
00!
1#!
0Z!
1H!
1?!
0B!
0V!
1G!
1U!
0#!
0Y!
10!
16!
1A!
0<!
09!
1[!
0I!
0Q!
0H!
1Z!
1V!
1<!
19!
0?!
1L!
1K!
0\!
1O!
0R!
1I!
1Q!
0[!
0Z!
1N!
0L!
0K!
1M!
0A
1]!
1\!
0O!
1R!
1[!
0^!
0M!
0V!
0T!
00
1A
0]!
0\!
0_!
1V!
1T!
0N!
1Z!
0[!
10
1@
1^!
1]!
0Z!
1\!
11
1_!
0^!
1[!
0]!
0@
0_!
0\!
1^!
01
1@
1]!
1_!
11
0@
0^!
01
0_!
1@
11
#170000
b10001 !
1t
0+!
1)!
1W!
14!
1X!
1D!
1C!
1Y!
0G!
0U!
1H!
0S!
0V!
0I!
0Q!
0T!
1O!
0R!
0[!
1P!
1\!
#180000
b10011 !
b10010 !
0t
1^
1+!
0)!
1*!
0s
1q
0W!
04!
0E!
15!
0C!
13!
1)!
0X!
0D!
05!
1C!
1W!
06!
1B!
0Y!
1G!
1U!
0A!
1X!
1?!
1S!
1Z!
0S!
1V!
1Y!
1T!
0T!
0Z!
#190000
b10011 !
1t
0+!
1u
0)!
1F!
0W!
14!
0v
0'!
0G!
0U!
0X!
1D!
15!
0C!
1w
0%!
1S!
0V!
0Y!
1U!
1A!
0x
0}
1T!
1Z!
1V!
1#!
0Z!
1[!
#200000
b10111 !
b10101 !
b10100 !
0t
0^
1L
1+!
0u
1)!
0*!
1s
0q
1r
0_
1\
0F!
1W!
04!
1E!
05!
1C!
03!
0)!
1(!
1q
0U!
1X!
0D!
0C!
0W!
16!
0B!
1.!
02!
14!
0V!
1Y!
1G!
1U!
1D!
0X!
07!
0S!
11!
0@!
1C!
0H!
1S!
1V!
0G!
0U!
0Y!
0T!
1>!
1I!
1Q!
0Q!
1T!
1H!
0S!
0V!
0[!
1R!
0R!
1[!
1Q!
0T!
1Z!
1R!
0[!
#210000
b10101 !
1t
0+!
1)!
1W!
1,!
04!
1X!
13!
0D!
0C!
1Y!
1B!
06!
0A!
1G!
1U!
0Z!
17!
0?!
1V!
08!
0=!
1:!
09!
0;!
1B
0E!
0B!
0>!
0<!
1/
1F!
0W!
0H!
1S!
0O!
1L!
1K!
0G!
0U!
0X!
0Q!
1T!
0P!
1M!
1N!
0A
1H!
0S!
0V!
0Y!
0R!
1[!
0]!
1X!
0T!
0N!
00
1Q!
1Z!
1^!
1Y!
0[!
1_!
0Z!
0@
01
#220000
b10111 !
b10110 !
0t
1^
1+!
0)!
1*!
0s
1`
0q
0F!
1W!
0,!
14!
0X!
1E!
1C!
0-!
03!
1)!
0a
0o
1G!
1U!
1-!
13!
1D!
15!
0C!
0Y!
0W!
12!
16!
1A!
1m
0H!
1S!
1V!
02!
1B!
06!
0G!
0U!
0D!
1Z!
0Q!
1T!
0Z!
1H!
0V!
1G!
1U!
1[!
1Q!
1Z!
0S!
0[!
#230000
b10111 !
1t
0+!
1u
0)!
1W!
1,!
04!
1'!
0-!
03!
05!
1C!
12!
16!
1D!
1V!
0G!
0U!
0Z!
1S!
1[!
#240000
b11111 !
b11011 !
b11001 !
b11000 !
0t
0^
0L
1M
1+!
0u
1)!
0*!
1s
0`
1q
0r
1_
1]
0W!
0,!
14!
1v
1X!
0E!
0C!
1-!
13!
0)!
0(!
0q
1p
03!
0D!
1C!
1Y!
1W!
0.!
06!
0A!
04!
1&!
0B!
16!
1A!
0V!
1G!
1U!
1D!
1?!
0C!
13!
0T!
0H!
0?!
1B!
1V!
0G!
0U!
1@!
0D!
06!
0A!
0[!
0@!
1T!
1H!
0V!
1R!
1G!
1U!
1?!
0B!
0R!
1[!
0H!
1@!
0T!
1R!
0[!
#250000
b11001 !
1t
0+!
1)!
1F!
0W!
14!
0G!
0U!
1C!
1H!
0S!
1D!
0I!
0Q!
1V!
1U!
1O!
#260000
b11011 !
b11010 !
0t
1^
1+!
0)!
1*!
0s
1q
0F!
1W!
04!
0X!
1E!
15!
0C!
0-!
03!
1)!
0U!
0D!
05!
1C!
0Y!
0W!
1.!
02!
0V!
1G!
1U!
16!
1A!
1D!
0/!
01!
0?!
1Z!
0H!
1S!
1V!
07!
1?!
1B!
0G!
0U!
00!
18!
1=!
0@!
1I!
1T!
0Z!
0=!
1@!
1H!
0:!
1>!
0R!
1[!
0>!
1R!
0I!
1;!
1P!
0B
0\!
0P!
1X!
0E!
0D!
0B!
0@!
1]!
0/
1Y!
1W!
0V!
1G!
1U!
0T!
0S!
0R!
1I!
1Q!
0^!
0H!
1S!
0[!
1\!
0O!
0_!
1@
0Q!
0]!
11
1^!
1_!
0@
01
#270000
b11011 !
1t
0+!
1u
0)!
1F!
0W!
14!
0v
0'!
0G!
0U!
1D!
15!
0C!
1%!
1H!
0S!
1V!
1U!
06!
0A!
1Q!
17!
0?!
1=!
#280000
b11111 !
b11101 !
b11100 !
0t
0^
1L
1+!
0u
1)!
0*!
1s
0q
1r
0_
1N
0\
0F!
1W!
04!
0X!
1E!
05!
1C!
1-!
13!
0)!
1(!
1q
1Z
0U!
0D!
0C!
0Y!
0W!
1B!
14!
0V!
1G!
1U!
1D!
1T!
1S!
1C!
1Z!
0S!
1V!
0G!
0U!
1[!
0[!
0Z!
1S!
1[!
#290000
b11101 !
1t
0+!
1)!
1W!
1,!
04!
0-!
03!
0D!
0C!
12!
0B!
16!
1A!
0V!
1G!
1U!
1@!
0T!
0H!
1Z!
1R!
0[!
#300000
b11111 !
b11110 !
0t
1^
1+!
0)!
1*!
0s
1`
0q
0W!
0,!
14!
1X!
0E!
1C!
13!
1)!
1o
03!
1D!
15!
0C!
1Y!
1W!
1B!
06!
0A!
0B!
1V!
0G!
0U!
0Z!
1T!
1H!
0S!
1?!
0T!
1[!
0I!
0Q!
0[!
0\!
1O!
1\!
1]!
0]!
0^!
1^!
0_!
1@
1_!
11
0@
01
#310000
b11111 !
1t
0+!
1u
0)!
1F!
0W!
1,!
04!
1'!
1U!
13!
0D!
05!
1C!
0V!
1B!
0U!
1T!
1S!
1[!
0\!
1]!
0^!
0_!
1@
11
#320000
b111111 !
b101111 !
b100111 !
b100011 !
b100001 !
b100000 !
0t
0^
0L
0M
0K
1J
1+!
0u
1)!
0*!
1s
0`
1q
0r
1_
0N
0]
0[
0Z
1Y
1X
0F!
1W!
0,!
14!
1v
0X!
1E!
0C!
03!
0)!
1a
0(!
0q
1O
1Z
0p
0n
0m
1l
0c
0k
1G!
1U!
1-!
13!
1D!
1C!
0w
0Y!
0W!
0B!
16!
1A!
0b
1m
02!
04!
0X
0&!
0~
1x
1}
1$!
1y
0#!
1i
0H!
1V!
0.!
1B!
06!
0A!
0G!
0U!
0D!
0}
1Z!
0T!
07!
1c
1k
0@!
0C!
03!
10!
0y
1#!
0z
0!!
1I!
0Z!
1/!
11!
1T!
1H!
17!
0?!
0B!
0V!
1G!
1U!
0[!
0=!
0i
0R!
16!
1A!
1<!
19!
1z
1!!
1{
0O!
1[!
00!
1>!
08!
1Q!
0T!
0H!
1Z!
1\!
07!
1?!
1N!
0L!
0K!
0{
0|
18
1P!
0<!
1O!
0[!
0Q!
0]!
18!
1=!
0M!
1|
0+!
1(!
1&!
1"!
1)
08
1A
1]!
0N!
1L!
1K!
09!
1V!
1T!
1+!
0(!
0&!
0"!
1W!
1,!
12!
0/!
01!
13!
10!
10
0)
1M!
1N!
1<!
0Z!
0W!
0,!
02!
1/!
11!
1X!
1@!
17!
0?!
0>!
0=!
1B!
06!
0A!
19!
0A
0X!
0V!
1R!
0P!
0L!
0K!
1[!
03!
0@!
00!
1>!
08!
1Y!
1Q!
0O!
1H!
0S!
00
0Y!
0\!
0]!
0M!
0B!
16!
1A!
0R!
0<!
1P!
1O!
1A
1Z!
1]!
1V!
0T!
1R!
0N!
0H!
1S!
07!
1?!
1\!
1L!
1K!
10
0[!
0Z!
0\!
0Q!
1T!
18!
1=!
1M!
1N!
0A
1\!
1[!
0R!
09!
0V!
0T!
0N!
00
1Z!
0[!
#330000
b100001 !
1t
0+!
1)!
1W!
14!
1D!
1C!
1V!
0G!
0U!
0Z!
1H!
0S!
1Q!
#340000
b100011 !
b100010 !
0t
1^
1+!
0)!
1*!
0s
1q
0W!
04!
1X!
0E!
15!
0C!
13!
1)!
0D!
05!
1C!
1Y!
1W!
06!
1B!
0V!
1G!
1U!
0A!
17!
0?!
1T!
1S!
0S!
08!
0=!
1[!
19!
#350000
b100011 !
1t
0+!
1u
0)!
1F!
0W!
14!
0v
0'!
0G!
0U!
1D!
15!
0C!
1w
0%!
1S!
1V!
1U!
1A!
1}
#360000
b100111 !
b100101 !
b100100 !
0t
0^
1L
1+!
0u
1)!
0*!
1s
0q
1r
0_
1\
0F!
1W!
04!
0X!
1E!
05!
1C!
03!
0)!
1(!
1q
0U!
0D!
0C!
0Y!
0W!
16!
0B!
12!
14!
0V!
1G!
1U!
1D!
0T!
0S!
1@!
1C!
1Z!
0H!
1S!
1V!
0G!
0U!
0[!
1R!
0I!
0Q!
1I!
1Q!
0Z!
1H!
0S!
1J!
0O!
0J!
1O!
0I!
0Q!
0L!
0K!
1L!
1K!
1J!
0O!
0M!
1A
1M!
1N!
0L!
0K!
0P!
0V!
0R!
10
0A
1V!
1R!
1P!
0N!
0M!
0]!
1Z!
00
1A
0Z!
1]!
1^!
0V!
0R!
0P!
10
0^!
1_!
1Z!
0]!
0@
0_!
1^!
01
1@
1_!
11
0@
01
#370000
b100101 !
1t
0+!
1)!
1W!
1,!
04!
1X!
13!
0D!
0C!
1Y!
1B!
06!
0A!
1G!
1U!
0Z!
1?!
1V!
#380000
b100111 !
b100110 !
0t
1^
1+!
0)!
1*!
0s
1`
0q
0W!
0,!
14!
0E!
1C!
0-!
03!
1)!
0a
0o
0X!
1-!
13!
1D!
15!
0C!
1W!
1.!
02!
0B!
16!
1A!
1b
0m
0Y!
0.!
12!
1B!
06!
0G!
0U!
1X!
0/!
01!
0@!
07!
0H!
1S!
0c
0k
1/!
11!
1@!
17!
1T!
1H!
0V!
1Y!
10!
0>!
18!
1I!
1i
00!
1>!
08!
0I!
1[!
1<!
0J!
0<!
1J!
